%YAML 1.1
%TAG !u! tag:unity3d.com,2011:
--- !u!1 &8892538001766988505
GameObject:
  m_ObjectHideFlags: 0
  m_CorrespondingSourceObject: {fileID: 0}
  m_PrefabInstance: {fileID: 0}
  m_PrefabAsset: {fileID: 0}
  serializedVersion: 6
  m_Component:
  - component: {fileID: 641336348182081095}
  - component: {fileID: 1975407785892660}
  m_Layer: 5
  m_Name: MKButton
  m_TagString: Untagged
  m_Icon: {fileID: 0}
  m_NavMeshLayer: 0
  m_StaticEditorFlags: 0
  m_IsActive: 1
--- !u!224 &641336348182081095
RectTransform:
  m_ObjectHideFlags: 0
  m_CorrespondingSourceObject: {fileID: 0}
  m_PrefabInstance: {fileID: 0}
  m_PrefabAsset: {fileID: 0}
  m_GameObject: {fileID: 8892538001766988505}
  m_LocalRotation: {x: 0, y: 0, z: 0, w: 1}
  m_LocalPosition: {x: 0, y: 0, z: 0}
  m_LocalScale: {x: 1, y: 1, z: 1}
  m_Children:
  - {fileID: 6118567801458314887}
  m_Father: {fileID: 0}
  m_RootOrder: 0
  m_LocalEulerAnglesHint: {x: 0, y: 0, z: 0}
  m_AnchorMin: {x: 0.5, y: 0.5}
  m_AnchorMax: {x: 0.5, y: 0.5}
  m_AnchoredPosition: {x: 0, y: 0}
  m_SizeDelta: {x: 234, y: 73}
  m_Pivot: {x: 0.5, y: 0.5}
--- !u!114 &1975407785892660
MonoBehaviour:
  m_ObjectHideFlags: 0
  m_CorrespondingSourceObject: {fileID: 0}
  m_PrefabInstance: {fileID: 0}
  m_PrefabAsset: {fileID: 0}
  m_GameObject: {fileID: 8892538001766988505}
  m_Enabled: 1
  m_EditorHideFlags: 0
  m_Script: {fileID: 11500000, guid: ba4558f42079f8b4386a110aaf2c5249, type: 3}
  m_Name: 
  m_EditorClassIdentifier: 
  animationSpeed: 10
  content: Button
  buttonColor: 0
--- !u!1001 &5142174441148248954
PrefabInstance:
  m_ObjectHideFlags: 0
  serializedVersion: 2
  m_Modification:
    m_TransformParent: {fileID: 641336348182081095}
    m_Modifications:
    - target: {fileID: 1420085889155677693, guid: db6c3e66b25427f45b282454c1cdb739, type: 3}
      propertyPath: m_Pivot.x
      value: 0.5
      objectReference: {fileID: 0}
    - target: {fileID: 1420085889155677693, guid: db6c3e66b25427f45b282454c1cdb739, type: 3}
      propertyPath: m_Pivot.y
      value: 0.5
      objectReference: {fileID: 0}
    - target: {fileID: 1420085889155677693, guid: db6c3e66b25427f45b282454c1cdb739, type: 3}
      propertyPath: m_RootOrder
      value: 0
      objectReference: {fileID: 0}
    - target: {fileID: 1420085889155677693, guid: db6c3e66b25427f45b282454c1cdb739, type: 3}
      propertyPath: m_AnchorMax.x
      value: 1
      objectReference: {fileID: 0}
    - target: {fileID: 1420085889155677693, guid: db6c3e66b25427f45b282454c1cdb739, type: 3}
      propertyPath: m_AnchorMax.y
      value: 1
      objectReference: {fileID: 0}
    - target: {fileID: 1420085889155677693, guid: db6c3e66b25427f45b282454c1cdb739, type: 3}
      propertyPath: m_AnchorMin.x
      value: 0
      objectReference: {fileID: 0}
    - target: {fileID: 1420085889155677693, guid: db6c3e66b25427f45b282454c1cdb739, type: 3}
      propertyPath: m_AnchorMin.y
      value: 0
      objectReference: {fileID: 0}
    - target: {fileID: 1420085889155677693, guid: db6c3e66b25427f45b282454c1cdb739, type: 3}
      propertyPath: m_SizeDelta.x
      value: 0.00024414
      objectReference: {fileID: 0}
    - target: {fileID: 1420085889155677693, guid: db6c3e66b25427f45b282454c1cdb739, type: 3}
      propertyPath: m_SizeDelta.y
      value: 0.00024414
      objectReference: {fileID: 0}
    - target: {fileID: 1420085889155677693, guid: db6c3e66b25427f45b282454c1cdb739, type: 3}
      propertyPath: m_LocalPosition.x
      value: 0
      objectReference: {fileID: 0}
    - target: {fileID: 1420085889155677693, guid: db6c3e66b25427f45b282454c1cdb739, type: 3}
      propertyPath: m_LocalPosition.y
      value: 0
      objectReference: {fileID: 0}
    - target: {fileID: 1420085889155677693, guid: db6c3e66b25427f45b282454c1cdb739, type: 3}
      propertyPath: m_LocalPosition.z
      value: 0
      objectReference: {fileID: 0}
    - target: {fileID: 1420085889155677693, guid: db6c3e66b25427f45b282454c1cdb739, type: 3}
      propertyPath: m_LocalRotation.w
      value: 1
      objectReference: {fileID: 0}
    - target: {fileID: 1420085889155677693, guid: db6c3e66b25427f45b282454c1cdb739, type: 3}
      propertyPath: m_LocalRotation.x
      value: -0
      objectReference: {fileID: 0}
    - target: {fileID: 1420085889155677693, guid: db6c3e66b25427f45b282454c1cdb739, type: 3}
      propertyPath: m_LocalRotation.y
      value: -0
      objectReference: {fileID: 0}
    - target: {fileID: 1420085889155677693, guid: db6c3e66b25427f45b282454c1cdb739, type: 3}
      propertyPath: m_LocalRotation.z
      value: -0
      objectReference: {fileID: 0}
    - target: {fileID: 1420085889155677693, guid: db6c3e66b25427f45b282454c1cdb739, type: 3}
      propertyPath: m_AnchoredPosition.x
      value: 0.00012207031
      objectReference: {fileID: 0}
    - target: {fileID: 1420085889155677693, guid: db6c3e66b25427f45b282454c1cdb739, type: 3}
      propertyPath: m_AnchoredPosition.y
      value: -0.00012207031
      objectReference: {fileID: 0}
    - target: {fileID: 1420085889155677693, guid: db6c3e66b25427f45b282454c1cdb739, type: 3}
      propertyPath: m_LocalEulerAnglesHint.x
      value: 0
      objectReference: {fileID: 0}
    - target: {fileID: 1420085889155677693, guid: db6c3e66b25427f45b282454c1cdb739, type: 3}
      propertyPath: m_LocalEulerAnglesHint.y
      value: 0
      objectReference: {fileID: 0}
    - target: {fileID: 1420085889155677693, guid: db6c3e66b25427f45b282454c1cdb739, type: 3}
      propertyPath: m_LocalEulerAnglesHint.z
      value: 0
      objectReference: {fileID: 0}
    - target: {fileID: 2770272001330405290, guid: db6c3e66b25427f45b282454c1cdb739, type: 3}
      propertyPath: m_Text
      value: Button
      objectReference: {fileID: 0}
    - target: {fileID: 3581594328967237628, guid: db6c3e66b25427f45b282454c1cdb739, type: 3}
      propertyPath: m_Colors.m_NormalColor.b
      value: 0.3647059
      objectReference: {fileID: 0}
    - target: {fileID: 3581594328967237628, guid: db6c3e66b25427f45b282454c1cdb739, type: 3}
      propertyPath: m_Colors.m_NormalColor.g
      value: 0.8352941
      objectReference: {fileID: 0}
    - target: {fileID: 3581594328967237628, guid: db6c3e66b25427f45b282454c1cdb739, type: 3}
      propertyPath: m_Colors.m_NormalColor.r
      value: 0.5686275
      objectReference: {fileID: 0}
    - target: {fileID: 3581594328967237628, guid: db6c3e66b25427f45b282454c1cdb739, type: 3}
      propertyPath: m_Colors.m_PressedColor.b
      value: 0.34117648
      objectReference: {fileID: 0}
    - target: {fileID: 3581594328967237628, guid: db6c3e66b25427f45b282454c1cdb739, type: 3}
      propertyPath: m_Colors.m_PressedColor.g
      value: 0.78039217
      objectReference: {fileID: 0}
    - target: {fileID: 3581594328967237628, guid: db6c3e66b25427f45b282454c1cdb739, type: 3}
      propertyPath: m_Colors.m_PressedColor.r
      value: 0.53333336
      objectReference: {fileID: 0}
    - target: {fileID: 3581594328967237628, guid: db6c3e66b25427f45b282454c1cdb739, type: 3}
      propertyPath: m_Colors.m_SelectedColor.b
      value: 0.3647059
      objectReference: {fileID: 0}
    - target: {fileID: 3581594328967237628, guid: db6c3e66b25427f45b282454c1cdb739, type: 3}
      propertyPath: m_Colors.m_SelectedColor.g
      value: 0.8352941
      objectReference: {fileID: 0}
    - target: {fileID: 3581594328967237628, guid: db6c3e66b25427f45b282454c1cdb739, type: 3}
      propertyPath: m_Colors.m_SelectedColor.r
      value: 0.5686275
      objectReference: {fileID: 0}
    - target: {fileID: 3581594328967237628, guid: db6c3e66b25427f45b282454c1cdb739, type: 3}
      propertyPath: m_Colors.m_HighlightedColor.b
      value: 0.34117648
      objectReference: {fileID: 0}
    - target: {fileID: 3581594328967237628, guid: db6c3e66b25427f45b282454c1cdb739, type: 3}
      propertyPath: m_Colors.m_HighlightedColor.g
      value: 0.78039217
      objectReference: {fileID: 0}
    - target: {fileID: 3581594328967237628, guid: db6c3e66b25427f45b282454c1cdb739, type: 3}
      propertyPath: m_Colors.m_HighlightedColor.r
      value: 0.53333336
      objectReference: {fileID: 0}
    - target: {fileID: 3581594328967237628, guid: db6c3e66b25427f45b282454c1cdb739, type: 3}
      propertyPath: m_OnClick.m_PersistentCalls.m_Calls.Array.size
      value: 0
      objectReference: {fileID: 0}
    - target: {fileID: 3581594328967237628, guid: db6c3e66b25427f45b282454c1cdb739, type: 3}
      propertyPath: m_OnClick.m_PersistentCalls.m_Calls.Array.data[1].m_Mode
      value: 1
      objectReference: {fileID: 0}
    - target: {fileID: 3581594328967237628, guid: db6c3e66b25427f45b282454c1cdb739, type: 3}
      propertyPath: m_OnClick.m_PersistentCalls.m_Calls.Array.data[1].m_CallState
      value: 2
      objectReference: {fileID: 0}
    - target: {fileID: 3581594328967237628, guid: db6c3e66b25427f45b282454c1cdb739, type: 3}
      propertyPath: m_OnClick.m_PersistentCalls.m_Calls.Array.data[0].m_MethodName
      value: 
      objectReference: {fileID: 0}
    - target: {fileID: 3581594328967237628, guid: db6c3e66b25427f45b282454c1cdb739, type: 3}
      propertyPath: m_OnClick.m_PersistentCalls.m_Calls.Array.data[1].m_MethodName
      value: 
      objectReference: {fileID: 0}
    - target: {fileID: 3581594328967237628, guid: db6c3e66b25427f45b282454c1cdb739, type: 3}
      propertyPath: m_OnClick.m_PersistentCalls.m_Calls.Array.data[1].m_TargetAssemblyTypeName
      value: menus.LobbyManager, Assembly-CSharp
      objectReference: {fileID: 0}
    - target: {fileID: 3581594328967237628, guid: db6c3e66b25427f45b282454c1cdb739, type: 3}
      propertyPath: m_OnClick.m_PersistentCalls.m_Calls.Array.data[0].m_Arguments.m_ObjectArgumentAssemblyTypeName
      value: 
      objectReference: {fileID: 0}
    - target: {fileID: 3581594328967237628, guid: db6c3e66b25427f45b282454c1cdb739, type: 3}
      propertyPath: m_OnClick.m_PersistentCalls.m_Calls.Array.data[1].m_Arguments.m_ObjectArgumentAssemblyTypeName
      value: 
      objectReference: {fileID: 0}
    - target: {fileID: 7831617438928705652, guid: db6c3e66b25427f45b282454c1cdb739, type: 3}
      propertyPath: m_Name
      value: MKButtonObject
      objectReference: {fileID: 0}
    m_RemovedComponents: []
  m_SourcePrefab: {fileID: 100100000, guid: db6c3e66b25427f45b282454c1cdb739, type: 3}
--- !u!1 &3167106933108927246 stripped
GameObject:
  m_CorrespondingSourceObject: {fileID: 7831617438928705652, guid: db6c3e66b25427f45b282454c1cdb739, type: 3}
  m_PrefabInstance: {fileID: 5142174441148248954}
  m_PrefabAsset: {fileID: 0}
--- !u!224 &6118567801458314887 stripped
RectTransform:
  m_CorrespondingSourceObject: {fileID: 1420085889155677693, guid: db6c3e66b25427f45b282454c1cdb739, type: 3}
  m_PrefabInstance: {fileID: 5142174441148248954}
  m_PrefabAsset: {fileID: 0}
--- !u!114 &458071507756284909
MonoBehaviour:
  m_ObjectHideFlags: 0
  m_CorrespondingSourceObject: {fileID: 0}
  m_PrefabInstance: {fileID: 0}
  m_PrefabAsset: {fileID: 0}
  m_GameObject: {fileID: 3167106933108927246}
  m_Enabled: 1
  m_EditorHideFlags: 0
  m_Script: {fileID: 11500000, guid: 242dd4564e7a40769792ab03e654f210, type: 3}
  m_Name: 
  m_EditorClassIdentifier: 
