%YAML 1.1
%TAG !u! tag:unity3d.com,2011:
--- !u!78 &1
TagManager:
  serializedVersion: 2
  tags:
  - Mikuni
  - TitleMenu
  - PlayMenu
  - Cauldron
  - Camera
  layers:
  - Default
  - TransparentFX
  - Ignore Raycast
  - 
  - Water
  - UI
  - OverUI
  - Ground
  - Decoration
  - Player
  - 
  - 
  - 
  - 
  - 
  - 
  - Post-Processing
  - 
  - 
  - 
  - 
  - 
  - 
  - 
  - 
  - 
  - 
  - 
  - 
  - 
  - 
  - 
  m_SortingLayers:
  - name: Default
    uniqueID: 0
    locked: 0
