%YAML 1.1
%TAG !u! tag:unity3d.com,2011:
--- !u!1001 &1660558218012133016
PrefabInstance:
  m_ObjectHideFlags: 0
  serializedVersion: 2
  m_Modification:
    m_TransformParent: {fileID: 0}
    m_Modifications:
    - target: {fileID: -8679921383154817045, guid: f17f043ce4284d045929043fbdd5a47e, type: 3}
      propertyPath: m_RootOrder
      value: 0
      objectReference: {fileID: 0}
    - target: {fileID: -8679921383154817045, guid: f17f043ce4284d045929043fbdd5a47e, type: 3}
      propertyPath: m_LocalScale.x
      value: 5
      objectReference: {fileID: 0}
    - target: {fileID: -8679921383154817045, guid: f17f043ce4284d045929043fbdd5a47e, type: 3}
      propertyPath: m_LocalScale.y
      value: 5
      objectReference: {fileID: 0}
    - target: {fileID: -8679921383154817045, guid: f17f043ce4284d045929043fbdd5a47e, type: 3}
      propertyPath: m_LocalScale.z
      value: 5
      objectReference: {fileID: 0}
    - target: {fileID: -8679921383154817045, guid: f17f043ce4284d045929043fbdd5a47e, type: 3}
      propertyPath: m_LocalPosition.x
      value: -139.20583
      objectReference: {fileID: 0}
    - target: {fileID: -8679921383154817045, guid: f17f043ce4284d045929043fbdd5a47e, type: 3}
      propertyPath: m_LocalPosition.y
      value: 101.68
      objectReference: {fileID: 0}
    - target: {fileID: -8679921383154817045, guid: f17f043ce4284d045929043fbdd5a47e, type: 3}
      propertyPath: m_LocalPosition.z
      value: 317.10492
      objectReference: {fileID: 0}
    - target: {fileID: -8679921383154817045, guid: f17f043ce4284d045929043fbdd5a47e, type: 3}
      propertyPath: m_LocalRotation.w
      value: 1
      objectReference: {fileID: 0}
    - target: {fileID: -8679921383154817045, guid: f17f043ce4284d045929043fbdd5a47e, type: 3}
      propertyPath: m_LocalRotation.x
      value: 0
      objectReference: {fileID: 0}
    - target: {fileID: -8679921383154817045, guid: f17f043ce4284d045929043fbdd5a47e, type: 3}
      propertyPath: m_LocalRotation.y
      value: 0
      objectReference: {fileID: 0}
    - target: {fileID: -8679921383154817045, guid: f17f043ce4284d045929043fbdd5a47e, type: 3}
      propertyPath: m_LocalRotation.z
      value: 0
      objectReference: {fileID: 0}
    - target: {fileID: -8679921383154817045, guid: f17f043ce4284d045929043fbdd5a47e, type: 3}
      propertyPath: m_LocalEulerAnglesHint.x
      value: 0
      objectReference: {fileID: 0}
    - target: {fileID: -8679921383154817045, guid: f17f043ce4284d045929043fbdd5a47e, type: 3}
      propertyPath: m_LocalEulerAnglesHint.y
      value: 0
      objectReference: {fileID: 0}
    - target: {fileID: -8679921383154817045, guid: f17f043ce4284d045929043fbdd5a47e, type: 3}
      propertyPath: m_LocalEulerAnglesHint.z
      value: 0
      objectReference: {fileID: 0}
    - target: {fileID: 919132149155446097, guid: f17f043ce4284d045929043fbdd5a47e, type: 3}
      propertyPath: m_Name
      value: tree-laurel-low-poly
      objectReference: {fileID: 0}
    m_RemovedComponents: []
  m_SourcePrefab: {fileID: 100100000, guid: f17f043ce4284d045929043fbdd5a47e, type: 3}
